project-safecrack/simulation/qsim/safecrack_fsm.msim.vcd
$comment
	File created using the following command:
		vcd file safecrack_fsm.msim.vcd -direction
$end
$date
	Tue Aug 12 19:55:44 2025
$end
$version
	ModelSim Version 2020.1
$end
$timescale
	1ps
$end

$scope module safecrack_fsm_vlg_vec_tst $end
$var reg 1 ! KEY0_n $end
$var reg 1 " KEY1_n $end
$var reg 1 # KEY2_n $end
$var reg 4 $ SW [3:0] $end
$var reg 1 % clk $end
$var wire 1 & LEDG [8] $end
$var wire 1 ' LEDG [7] $end
$var wire 1 ( LEDG [6] $end
$var wire 1 ) LEDG [5] $end
$var wire 1 * LEDG [4] $end
$var wire 1 + LEDG [3] $end
$var wire 1 , LEDG [2] $end
$var wire 1 - LEDG [1] $end
$var wire 1 . LEDG [0] $end
$var wire 1 / LEDR [17] $end
$var wire 1 0 LEDR [16] $end
$var wire 1 1 LEDR [15] $end
$var wire 1 2 LEDR [14] $end
$var wire 1 3 LEDR [13] $end
$var wire 1 4 LEDR [12] $end
$var wire 1 5 LEDR [11] $end
$var wire 1 6 LEDR [10] $end
$var wire 1 7 LEDR [9] $end
$var wire 1 8 LEDR [8] $end
$var wire 1 9 LEDR [7] $end
$var wire 1 : LEDR [6] $end
$var wire 1 ; LEDR [5] $end
$var wire 1 < LEDR [4] $end
$var wire 1 = LEDR [3] $end
$var wire 1 > LEDR [2] $end
$var wire 1 ? LEDR [1] $end
$var wire 1 @ LEDR [0] $end

$scope module i1 $end
$var wire 1 A gnd $end
$var wire 1 B vcc $end
$var wire 1 C unknown $end
$var tri1 1 D devclrn $end
$var tri1 1 E devpor $end
$var tri1 1 F devoe $end
$var wire 1 G LEDR[0]~output_o $end
$var wire 1 H LEDR[1]~output_o $end
$var wire 1 I LEDR[2]~output_o $end
$var wire 1 J LEDR[3]~output_o $end
$var wire 1 K LEDR[4]~output_o $end
$var wire 1 L LEDR[5]~output_o $end
$var wire 1 M LEDR[6]~output_o $end
$var wire 1 N LEDR[7]~output_o $end
$var wire 1 O LEDR[8]~output_o $end
$var wire 1 P LEDR[9]~output_o $end
$var wire 1 Q LEDR[10]~output_o $end
$var wire 1 R LEDR[11]~output_o $end
$var wire 1 S LEDR[12]~output_o $end
$var wire 1 T LEDR[13]~output_o $end
$var wire 1 U LEDR[14]~output_o $end
$var wire 1 V LEDR[15]~output_o $end
$var wire 1 W LEDR[16]~output_o $end
$var wire 1 X LEDR[17]~output_o $end
$var wire 1 Y LEDG[0]~output_o $end
$var wire 1 Z LEDG[1]~output_o $end
$var wire 1 [ LEDG[2]~output_o $end
$var wire 1 \ LEDG[3]~output_o $end
$var wire 1 ] LEDG[4]~output_o $end
$var wire 1 ^ LEDG[5]~output_o $end
$var wire 1 _ LEDG[6]~output_o $end
$var wire 1 ` LEDG[7]~output_o $end
$var wire 1 a LEDG[8]~output_o $end
$var wire 1 b clk~input_o $end
$var wire 1 c clk~inputclkctrl_outclk $end
$var wire 1 d err_cnt[0]~29_combout $end
$var wire 1 e KEY0_n~input_o $end
$var wire 1 f KEY2_n~input_o $end
$var wire 1 g SW[0]~input_o $end
$var wire 1 h pass_code~3_combout $end
$var wire 1 i WideOr0~0_combout $end
$var wire 1 j idx[2]~4_combout $end
$var wire 1 k idx[2]~0_combout $end
$var wire 1 l lock_cnt[0]~31_combout $end
$var wire 1 m lock_cnt[8]~85_combout $end
$var wire 1 n lock_cnt[8]~86_combout $end
$var wire 1 o lock_cnt[8]~87_combout $end
$var wire 1 p lock_cnt[8]~29_combout $end
$var wire 1 q lock_cnt[8]~88_combout $end
$var wire 1 r lock_cnt[8]~89_combout $end
$var wire 1 s lock_cnt[8]~30_combout $end
$var wire 1 t lock_cnt[8]~90_combout $end
$var wire 1 u lock_cnt[8]~91_combout $end
$var wire 1 v lock_cnt[8]~92_combout $end
$var wire 1 w lock_cnt[8]~93_combout $end
$var wire 1 x lock_cnt[0]~32 $end
$var wire 1 y lock_cnt[1]~33_combout $end
$var wire 1 z lock_cnt[1]~34 $end
$var wire 1 { lock_cnt[2]~35_combout $end
$var wire 1 | lock_cnt[2]~36 $end
$var wire 1 } lock_cnt[3]~37_combout $end
$var wire 1 ~ lock_cnt[3]~38 $end
$var wire 1 !! lock_cnt[4]~39_combout $end
$var wire 1 "! lock_cnt[4]~40 $end
$var wire 1 #! lock_cnt[5]~41_combout $end
$var wire 1 $! lock_cnt[5]~42 $end
$var wire 1 %! lock_cnt[6]~43_combout $end
$var wire 1 &! lock_cnt[6]~44 $end
$var wire 1 '! lock_cnt[7]~45_combout $end
$var wire 1 (! lock_cnt[7]~46 $end
$var wire 1 )! lock_cnt[8]~47_combout $end
$var wire 1 *! lock_cnt[8]~48 $end
$var wire 1 +! lock_cnt[9]~49_combout $end
$var wire 1 ,! lock_cnt[9]~50 $end
$var wire 1 -! lock_cnt[10]~51_combout $end
$var wire 1 .! lock_cnt[10]~52 $end
$var wire 1 /! lock_cnt[11]~53_combout $end
$var wire 1 0! lock_cnt[11]~54 $end
$var wire 1 1! lock_cnt[12]~55_combout $end
$var wire 1 2! lock_cnt[12]~56 $end
$var wire 1 3! lock_cnt[13]~57_combout $end
$var wire 1 4! lock_cnt[13]~58 $end
$var wire 1 5! lock_cnt[14]~59_combout $end
$var wire 1 6! lock_cnt[14]~60 $end
$var wire 1 7! lock_cnt[15]~61_combout $end
$var wire 1 8! lock_cnt[15]~62 $end
$var wire 1 9! lock_cnt[16]~63_combout $end
$var wire 1 :! lock_cnt[16]~64 $end
$var wire 1 ;! lock_cnt[17]~65_combout $end
$var wire 1 <! lock_cnt[17]~66 $end
$var wire 1 =! lock_cnt[18]~67_combout $end
$var wire 1 >! lock_cnt[18]~68 $end
$var wire 1 ?! lock_cnt[19]~69_combout $end
$var wire 1 @! lock_cnt[19]~70 $end
$var wire 1 A! lock_cnt[20]~71_combout $end
$var wire 1 B! lock_cnt[20]~72 $end
$var wire 1 C! lock_cnt[21]~73_combout $end
$var wire 1 D! lock_cnt[21]~74 $end
$var wire 1 E! lock_cnt[22]~75_combout $end
$var wire 1 F! lock_cnt[22]~76 $end
$var wire 1 G! lock_cnt[23]~77_combout $end
$var wire 1 H! lock_cnt[23]~78 $end
$var wire 1 I! lock_cnt[24]~79_combout $end
$var wire 1 J! lock_cnt[24]~80 $end
$var wire 1 K! lock_cnt[25]~81_combout $end
$var wire 1 L! lock_cnt[25]~82 $end
$var wire 1 M! lock_cnt[26]~83_combout $end
$var wire 1 N! lock_cnt[26]~84 $end
$var wire 1 O! lock_cnt[27]~94_combout $end
$var wire 1 P! lock_cnt[27]~95 $end
$var wire 1 Q! lock_cnt[28]~96_combout $end
$var wire 1 R! always0~1_combout $end
$var wire 1 S! always0~2_combout $end
$var wire 1 T! always0~3_combout $end
$var wire 1 U! LessThan2~1_combout $end
$var wire 1 V! LessThan2~2_combout $end
$var wire 1 W! LessThan2~0_combout $end
$var wire 1 X! always0~4_combout $end
$var wire 1 Y! LessThan1~3_combout $end
$var wire 1 Z! LessThan1~0_combout $end
$var wire 1 [! err_cnt[14]~27_combout $end
$var wire 1 \! err_cnt[14]~28_combout $end
$var wire 1 ]! LessThan1~1_combout $end
$var wire 1 ^! LessThan1~2_combout $end
$var wire 1 _! LessThan1~4_combout $end
$var wire 1 `! Selector1~3_combout $end
$var wire 1 a! state~23_combout $end
$var wire 1 b! state.VERIFY~q $end
$var wire 1 c! Selector4~0_combout $end
$var wire 1 d! state.UNLOCK~q $end
$var wire 1 e! KEY1_n~input_o $end
$var wire 1 f! Selector1~4_combout $end
$var wire 1 g! Selector1~5_combout $end
$var wire 1 h! state.READY~q $end
$var wire 1 i! Selector2~1_combout $end
$var wire 1 j! state.ENTRY~q $end
$var wire 1 k! always2~0_combout $end
$var wire 1 l! attempt_code[14]~1_combout $end
$var wire 1 m! idx[2]~1_combout $end
$var wire 1 n! idx[2]~2_combout $end
$var wire 1 o! idx[2]~3_combout $end
$var wire 1 p! idx[0]~5_combout $end
$var wire 1 q! idx[1]~6_combout $end
$var wire 1 r! Equal4~0_combout $end
$var wire 1 s! state~22_combout $end
$var wire 1 t! state.PROG~q $end
$var wire 1 u! pass_code[15]~2_combout $end
$var wire 1 v! pass_code~7_combout $end
$var wire 1 w! pass_code~11_combout $end
$var wire 1 x! pass_code~15_combout $end
$var wire 1 y! SW[1]~input_o $end
$var wire 1 z! attempt_code~4_combout $end
$var wire 1 {! attempt_code[14]~3_combout $end
$var wire 1 |! attempt_code~8_combout $end
$var wire 1 }! attempt_code~12_combout $end
$var wire 1 ~! attempt_code~16_combout $end
$var wire 1 !" attempt_code~2_combout $end
$var wire 1 "" attempt_code~7_combout $end
$var wire 1 #" attempt_code~11_combout $end
$var wire 1 $" attempt_code~15_combout $end
$var wire 1 %" pass_code~1_combout $end
$var wire 1 &" pass_code~6_combout $end
$var wire 1 '" pass_code~10_combout $end
$var wire 1 (" pass_code~14_combout $end
$var wire 1 )" Equal2~8_combout $end
$var wire 1 *" SW[2]~input_o $end
$var wire 1 +" attempt_code~5_combout $end
$var wire 1 ," attempt_code~9_combout $end
$var wire 1 -" attempt_code~14_combout $end
$var wire 1 ." attempt_code~17_combout $end
$var wire 1 /" SW[3]~input_o $end
$var wire 1 0" attempt_code~6_combout $end
$var wire 1 1" attempt_code~10_combout $end
$var wire 1 2" attempt_code~13_combout $end
$var wire 1 3" attempt_code~18_combout $end
$var wire 1 4" pass_code~5_combout $end
$var wire 1 5" pass_code~9_combout $end
$var wire 1 6" pass_code~13_combout $end
$var wire 1 7" pass_code~17_combout $end
$var wire 1 8" pass_code~4_combout $end
$var wire 1 9" pass_code~8_combout $end
$var wire 1 :" pass_code~12_combout $end
$var wire 1 ;" pass_code~16_combout $end
$var wire 1 <" Equal2~9_combout $end
$var wire 1 =" Equal2~2_combout $end
$var wire 1 >" Equal2~0_combout $end
$var wire 1 ?" Equal2~3_combout $end
$var wire 1 @" Equal2~1_combout $end
$var wire 1 A" Equal2~4_combout $end
$var wire 1 B" Equal2~6_combout $end
$var wire 1 C" Equal2~5_combout $end
$var wire 1 D" Equal2~7_combout $end
$var wire 1 E" Equal2~10_combout $end
$var wire 1 F" tries[1]~1_combout $end
$var wire 1 G" tries[1]~4_combout $end
$var wire 1 H" tries[1]~6_combout $end
$var wire 1 I" tries[1]~2_combout $end
$var wire 1 J" tries[1]~3_combout $end
$var wire 1 K" tries[0]~5_combout $end
$var wire 1 L" state~17_combout $end
$var wire 1 M" state~20_combout $end
$var wire 1 N" state~12_combout $end
$var wire 1 O" state~13_combout $end
$var wire 1 P" state~15_combout $end
$var wire 1 Q" state~16_combout $end
$var wire 1 R" state~21_combout $end
$var wire 1 S" state.LOCKOUT~q $end
$var wire 1 T" state~14_combout $end
$var wire 1 U" state~18_combout $end
$var wire 1 V" state~19_combout $end
$var wire 1 W" state.ERROR_P~q $end
$var wire 1 X" err_cnt[14]~77_combout $end
$var wire 1 Y" err_cnt[14]~81_combout $end
$var wire 1 Z" err_cnt[14]~82_combout $end
$var wire 1 [" err_cnt[14]~80_combout $end
$var wire 1 \" err_cnt[14]~83_combout $end
$var wire 1 ]" err_cnt[14]~78_combout $end
$var wire 1 ^" err_cnt[14]~79_combout $end
$var wire 1 _" err_cnt[14]~84_combout $end
$var wire 1 `" err_cnt[0]~30 $end
$var wire 1 a" err_cnt[1]~31_combout $end
$var wire 1 b" err_cnt[1]~32 $end
$var wire 1 c" err_cnt[2]~33_combout $end
$var wire 1 d" err_cnt[2]~34 $end
$var wire 1 e" err_cnt[3]~35_combout $end
$var wire 1 f" err_cnt[3]~36 $end
$var wire 1 g" err_cnt[4]~37_combout $end
$var wire 1 h" err_cnt[4]~38 $end
$var wire 1 i" err_cnt[5]~39_combout $end
$var wire 1 j" err_cnt[5]~40 $end
$var wire 1 k" err_cnt[6]~41_combout $end
$var wire 1 l" err_cnt[6]~42 $end
$var wire 1 m" err_cnt[7]~43_combout $end
$var wire 1 n" err_cnt[7]~44 $end
$var wire 1 o" err_cnt[8]~45_combout $end
$var wire 1 p" err_cnt[8]~46 $end
$var wire 1 q" err_cnt[9]~47_combout $end
$var wire 1 r" err_cnt[9]~48 $end
$var wire 1 s" err_cnt[10]~49_combout $end
$var wire 1 t" err_cnt[10]~50 $end
$var wire 1 u" err_cnt[11]~51_combout $end
$var wire 1 v" err_cnt[11]~52 $end
$var wire 1 w" err_cnt[12]~53_combout $end
$var wire 1 x" err_cnt[12]~54 $end
$var wire 1 y" err_cnt[13]~55_combout $end
$var wire 1 z" err_cnt[13]~56 $end
$var wire 1 {" err_cnt[14]~57_combout $end
$var wire 1 |" err_cnt[14]~58 $end
$var wire 1 }" err_cnt[15]~59_combout $end
$var wire 1 ~" err_cnt[15]~60 $end
$var wire 1 !# err_cnt[16]~61_combout $end
$var wire 1 "# err_cnt[16]~62 $end
$var wire 1 ## err_cnt[17]~63_combout $end
$var wire 1 $# err_cnt[17]~64 $end
$var wire 1 %# err_cnt[18]~65_combout $end
$var wire 1 &# err_cnt[18]~66 $end
$var wire 1 '# err_cnt[19]~67_combout $end
$var wire 1 (# err_cnt[19]~68 $end
$var wire 1 )# err_cnt[20]~69_combout $end
$var wire 1 *# err_cnt[20]~70 $end
$var wire 1 +# err_cnt[21]~71_combout $end
$var wire 1 ,# err_cnt[21]~72 $end
$var wire 1 -# err_cnt[22]~73_combout $end
$var wire 1 .# err_cnt[22]~74 $end
$var wire 1 /# err_cnt[23]~75_combout $end
$var wire 1 0# LEDR~0_combout $end
$var wire 1 1# LEDG~4_combout $end
$var wire 1 2# LEDG~5_combout $end
$var wire 1 3# LEDG~7_combout $end
$var wire 1 4# LEDG~6_combout $end
$var wire 1 5# err_cnt [23] $end
$var wire 1 6# err_cnt [22] $end
$var wire 1 7# err_cnt [21] $end
$var wire 1 8# err_cnt [20] $end
$var wire 1 9# err_cnt [19] $end
$var wire 1 :# err_cnt [18] $end
$var wire 1 ;# err_cnt [17] $end
$var wire 1 <# err_cnt [16] $end
$var wire 1 =# err_cnt [15] $end
$var wire 1 ># err_cnt [14] $end
$var wire 1 ?# err_cnt [13] $end
$var wire 1 @# err_cnt [12] $end
$var wire 1 A# err_cnt [11] $end
$var wire 1 B# err_cnt [10] $end
$var wire 1 C# err_cnt [9] $end
$var wire 1 D# err_cnt [8] $end
$var wire 1 E# err_cnt [7] $end
$var wire 1 F# err_cnt [6] $end
$var wire 1 G# err_cnt [5] $end
$var wire 1 H# err_cnt [4] $end
$var wire 1 I# err_cnt [3] $end
$var wire 1 J# err_cnt [2] $end
$var wire 1 K# err_cnt [1] $end
$var wire 1 L# err_cnt [0] $end
$var wire 1 M# lock_cnt [28] $end
$var wire 1 N# lock_cnt [27] $end
$var wire 1 O# lock_cnt [26] $end
$var wire 1 P# lock_cnt [25] $end
$var wire 1 Q# lock_cnt [24] $end
$var wire 1 R# lock_cnt [23] $end
$var wire 1 S# lock_cnt [22] $end
$var wire 1 T# lock_cnt [21] $end
$var wire 1 U# lock_cnt [20] $end
$var wire 1 V# lock_cnt [19] $end
$var wire 1 W# lock_cnt [18] $end
$var wire 1 X# lock_cnt [17] $end
$var wire 1 Y# lock_cnt [16] $end
$var wire 1 Z# lock_cnt [15] $end
$var wire 1 [# lock_cnt [14] $end
$var wire 1 \# lock_cnt [13] $end
$var wire 1 ]# lock_cnt [12] $end
$var wire 1 ^# lock_cnt [11] $end
$var wire 1 _# lock_cnt [10] $end
$var wire 1 `# lock_cnt [9] $end
$var wire 1 a# lock_cnt [8] $end
$var wire 1 b# lock_cnt [7] $end
$var wire 1 c# lock_cnt [6] $end
$var wire 1 d# lock_cnt [5] $end
$var wire 1 e# lock_cnt [4] $end
$var wire 1 f# lock_cnt [3] $end
$var wire 1 g# lock_cnt [2] $end
$var wire 1 h# lock_cnt [1] $end
$var wire 1 i# lock_cnt [0] $end
$var wire 1 j# tries [1] $end
$var wire 1 k# tries [0] $end
$var wire 1 l# idx [2] $end
$var wire 1 m# idx [1] $end
$var wire 1 n# idx [0] $end
$var wire 1 o# attempt_code [15] $end
$var wire 1 p# attempt_code [14] $end
$var wire 1 q# attempt_code [13] $end
$var wire 1 r# attempt_code [12] $end
$var wire 1 s# attempt_code [11] $end
$var wire 1 t# attempt_code [10] $end
$var wire 1 u# attempt_code [9] $end
$var wire 1 v# attempt_code [8] $end
$var wire 1 w# attempt_code [7] $end
$var wire 1 x# attempt_code [6] $end
$var wire 1 y# attempt_code [5] $end
$var wire 1 z# attempt_code [4] $end
$var wire 1 {# attempt_code [3] $end
$var wire 1 |# attempt_code [2] $end
$var wire 1 }# attempt_code [1] $end
$var wire 1 ~# attempt_code [0] $end
$var wire 1 !$ pass_code [15] $end
$var wire 1 "$ pass_code [14] $end
$var wire 1 #$ pass_code [13] $end
$var wire 1 $$ pass_code [12] $end
$var wire 1 %$ pass_code [11] $end
$var wire 1 &$ pass_code [10] $end
$var wire 1 '$ pass_code [9] $end
$var wire 1 ($ pass_code [8] $end
$var wire 1 )$ pass_code [7] $end
$var wire 1 *$ pass_code [6] $end
$var wire 1 +$ pass_code [5] $end
$var wire 1 ,$ pass_code [4] $end
$var wire 1 -$ pass_code [3] $end
$var wire 1 .$ pass_code [2] $end
$var wire 1 /$ pass_code [1] $end
$var wire 1 0$ pass_code [0] $end
$upscope $end
$upscope $end
$enddefinitions $end
#0
$dumpvars
1!
1"
1#
b0 $
0%
0.
0-
0,
0+
0*
0)
0(
0'
0&
0@
0?
0>
0=
0<
0;
0:
09
08
07
06
05
04
03
02
01
00
0/
0A
1B
xC
1D
1E
1F
0G
0H
0I
0J
0K
0L
0M
0N
0O
0P
0Q
0R
0S
0T
0U
0V
0W
0X
0Y
0Z
0[
0\
0]
0^
0_
0`
0a
0b
0c
1d
1e
1f
0g
0h
0i
0j
1k
1l
1m
0n
0o
1p
0q
0r
1s
1t
0u
0v
1w
0x
0y
1z
0{
0|
0}
1~
0!!
0"!
0#!
1$!
0%!
0&!
0'!
1(!
0)!
0*!
0+!
1,!
0-!
0.!
0/!
10!
01!
02!
03!
14!
05!
06!
07!
18!
09!
0:!
0;!
1<!
0=!
0>!
0?!
1@!
0A!
0B!
0C!
1D!
0E!
0F!
0G!
1H!
0I!
0J!
0K!
1L!
0M!
0N!
0O!
1P!
0Q!
0R!
0S!
0T!
0U!
1V!
1W!
0X!
1Y!
1Z!
1[!
1\!
1]!
1^!
1_!
0`!
0a!
0b!
0c!
0d!
1e!
0f!
0g!
0h!
0i!
0j!
1k!
1l!
1m!
1n!
0o!
0p!
0q!
0r!
0s!
0t!
0u!
0v!
0w!
0x!
0y!
0z!
0{!
0|!
0}!
0~!
0!"
0""
0#"
0$"
0%"
0&"
0'"
0("
1)"
0*"
0+"
0,"
0-"
0."
0/"
00"
01"
02"
03"
04"
05"
06"
07"
08"
09"
0:"
0;"
1<"
1="
1>"
1?"
1@"
1A"
0B"
1C"
1D"
1E"
1F"
0G"
0H"
0I"
1J"
0K"
0L"
0M"
0N"
0O"
0P"
0Q"
0R"
0S"
1T"
0U"
0V"
0W"
1X"
0Y"
1Z"
0["
0\"
0]"
0^"
1_"
0`"
0a"
1b"
0c"
0d"
0e"
1f"
0g"
0h"
0i"
1j"
0k"
0l"
0m"
1n"
0o"
0p"
0q"
1r"
0s"
0t"
0u"
1v"
0w"
0x"
0y"
1z"
0{"
0|"
0}"
1~"
0!#
0"#
0##
1$#
0%#
0&#
0'#
1(#
0)#
0*#
0+#
1,#
0-#
0.#
0/#
00#
01#
02#
03#
04#
0L#
0K#
0J#
0I#
0H#
0G#
0F#
0E#
0D#
0C#
0B#
0A#
0@#
0?#
0>#
0=#
0<#
0;#
0:#
09#
08#
07#
06#
05#
0i#
0h#
0g#
0f#
0e#
0d#
0c#
0b#
0a#
0`#
0_#
0^#
0]#
0\#
0[#
0Z#
0Y#
0X#
0W#
0V#
0U#
0T#
0S#
0R#
0Q#
0P#
0O#
0N#
0M#
0k#
0j#
0n#
0m#
0l#
0~#
0}#
0|#
0{#
0z#
0y#
0x#
0w#
0v#
0u#
0t#
0s#
0r#
0q#
0p#
0o#
00$
0/$
0.$
0-$
0,$
0+$
0*$
0)$
0($
0'$
0&$
0%$
0$$
0#$
0"$
0!$
$end
#5000
1%
1b
1c
#10000
0!
0%
0e
0b
0c
0F"
1u!
0l!
0J"
1{!
0n!
#15000
1%
1b
1c
#20000
0%
0b
0c
#25000
1%
1b
1c
#30000
1!
0%
1e
0b
0c
1F"
0u!
1l!
1J"
0{!
1o!
1n!
0o!
1p!
0p!
#35000
1%
1b
1c
#40000
0"
0%
0e!
0b
0c
0m!
1u!
0n!
1o!
1p!
#45000
1%
1b
1c
1n#
11#
1q!
0p!
1Y
1.
#50000
0%
0b
0c
#55000
1%
1b
1c
1m#
0n#
12#
1p!
1Z
1-
#60000
1"
0%
1e!
0b
0c
1m!
0u!
1n!
0o!
0p!
#65000
1%
1b
1c
#70000
0#
0%
0f
0b
0c
0m!
1u!
0n!
0q!
#75000
1%
1b
1c
0m#
02#
01#
0Y
0Z
0-
0.
#80000
0%
0b
0c
#85000
1%
1b
1c
#90000
1#
0%
1f
0b
0c
1o!
1m!
0u!
1n!
1p!
0o!
0p!
#95000
1%
1b
1c
#100000
0%
0b
0c
#105000
1%
1b
1c
#110000
0%
0b
0c
#115000
1%
1b
1c
#120000
0%
0b
0c
#125000
1%
1b
1c
#130000
0%
0b
0c
#135000
1%
1b
1c
#140000
0%
0b
0c
#145000
1%
1b
1c
#150000
0%
0b
0c
#155000
1%
1b
1c
#160000
0%
0b
0c
#165000
1%
1b
1c
#170000
0%
0b
0c
#175000
1%
1b
1c
#180000
0%
0b
0c
#185000
1%
1b
1c
#190000
0%
0b
0c
#195000
1%
1b
1c
#200000
0%
0b
0c
#205000
1%
1b
1c
#210000
0%
0b
0c
#215000
1%
1b
1c
#220000
0%
0b
0c
#225000
1%
1b
1c
#230000
0%
0b
0c
#235000
1%
1b
1c
#240000
0%
0b
0c
#245000
1%
1b
1c
#250000
0%
0b
0c
#255000
1%
1b
1c
#260000
0%
0b
0c
#265000
1%
1b
1c
#270000
0%
0b
0c
#275000
1%
1b
1c
#280000
0%
0b
0c
#285000
1%
1b
1c
#290000
0%
0b
0c
#295000
1%
1b
1c
#300000
0%
0b
0c
#305000
1%
1b
1c
#310000
0%
0b
0c
#315000
1%
1b
1c
#320000
0%
0b
0c
#325000
1%
1b
1c
#330000
0%
0b
0c
#335000
1%
1b
1c
#340000
0%
0b
0c
#345000
1%
1b
1c
#350000
0%
0b
0c
#355000
1%
1b
1c
#360000
0%
0b
0c
#365000
1%
1b
1c
#370000
0%
0b
0c
#375000
1%
1b
1c
#380000
0%
0b
0c
#385000
1%
1b
1c
#390000
0%
0b
0c
#395000
1%
1b
1c
#400000
0%
0b
0c
#405000
1%
1b
1c
#410000
0%
0b
0c
#415000
1%
1b
1c
#420000
0%
0b
0c
#425000
1%
1b
1c
#430000
0%
0b
0c
#435000
1%
1b
1c
#440000
0%
0b
0c
#445000
1%
1b
1c
#450000
0%
0b
0c
#455000
1%
1b
1c
#460000
0%
0b
0c
#465000
1%
1b
1c
#470000
0%
0b
0c
#475000
1%
1b
1c
#480000
0%
0b
0c
#485000
1%
1b
1c
#490000
0%
0b
0c
#495000
1%
1b
1c
#500000
0%
0b
0c
#505000
1%
1b
1c
#510000
0%
0b
0c
#515000
1%
1b
1c
#520000
0%
0b
0c
#525000
1%
1b
1c
#530000
0%
0b
0c
#535000
1%
1b
1c
#540000
0%
0b
0c
#545000
1%
1b
1c
#550000
0%
0b
0c
#555000
1%
1b
1c
#560000
0%
0b
0c
#565000
1%
1b
1c
#570000
0%
0b
0c
#575000
1%
1b
1c
#580000
0%
0b
0c
#585000
1%
1b
1c
#590000
0%
0b
0c
#595000
1%
1b
1c
#600000
0%
0b
0c
#605000
1%
1b
1c
#610000
0%
0b
0c
#615000
1%
1b
1c
#620000
0%
0b
0c
#625000
1%
1b
1c
#630000
0%
0b
0c
#635000
1%
1b
1c
#640000
0%
0b
0c
#645000
1%
1b
1c
#650000
0%
0b
0c
#655000
1%
1b
1c
#660000
0%
0b
0c
#665000
1%
1b
1c
#670000
0%
0b
0c
#675000
1%
1b
1c
#680000
0%
0b
0c
#685000
1%
1b
1c
#690000
0%
0b
0c
#695000
1%
1b
1c
#700000
0%
0b
0c
#705000
1%
1b
1c
#710000
0%
0b
0c
#715000
1%
1b
1c
#720000
0%
0b
0c
#725000
1%
1b
1c
#730000
0%
0b
0c
#735000
1%
1b
1c
#740000
0%
0b
0c
#745000
1%
1b
1c
#750000
0%
0b
0c
#755000
1%
1b
1c
#760000
0%
0b
0c
#765000
1%
1b
1c
#770000
0%
0b
0c
#775000
1%
1b
1c
#780000
0%
0b
0c
#785000
1%
1b
1c
#790000
0%
0b
0c
#795000
1%
1b
1c
#800000
0%
0b
0c
#805000
1%
1b
1c
#810000
0%
0b
0c
#815000
1%
1b
1c
#820000
0%
0b
0c
#825000
1%
1b
1c
#830000
0%
0b
0c
#835000
1%
1b
1c
#840000
0%
0b
0c
#845000
1%
1b
1c
#850000
0%
0b
0c
#855000
1%
1b
1c
#860000
0%
0b
0c
#865000
1%
1b
1c
#870000
0%
0b
0c
#875000
1%
1b
1c
#880000
0%
0b
0c
#885000
1%
1b
1c
#890000
0%
0b
0c
#895000
1%
1b
1c
#900000
0%
0b
0c
#905000
1%
1b
1c
#910000
0%
0b
0c
#915000
1%
1b
1c
#920000
0%
0b
0c
#925000
1%
1b
1c
#930000
0%
0b
0c
#935000
1%
1b
1c
#940000
0%
0b
0c
#945000
1%
1b
1c
#950000
0%
0b
0c
#955000
1%
1b
1c
#960000
0%
0b
0c
#965000
1%
1b
1c
#970000
0%
0b
0c
#975000
1%
1b
1c
#980000
0%
0b
0c
#985000
1%
1b
1c
#990000
0%
0b
0c
#995000
1%
1b
1c
